{
  "sections": [
  ],
  "pages": [
    {
      "title": "About",
      "slug": "about",
      "template": "page",
      "sections": [
        "page-header",
        "text",
        "image-text-button-2-columns",
        "image-text-button-2-columns",
        "testimonial-slider"
      ]
    },
    {
      "title": "Contact",
      "slug": "contact",
      "template": "page",
      "sections": [
        "page-header",
        "form",
        "testimonial-slider"
      ]
    },
    {
      "title": "FAQ",
      "slug": "faq",
      "template": "page",
      "sections": [
        "page-header",
        "faqs",
        "hero"
      ]
    },
    {
      "title": "Privacy",
      "slug": "privacy",
      "template": "page",
      "sections": [
        "text"
      ]
    },
    {
      "title": "Terms of Service",
      "slug": "terms-of-service",
      "template": "page",
      "sections": [
        "text"
      ]
    }
  ],
  "blogs": [
    {
      "title": "Sample Blog",
      "slug": "sample-blog",
      "template": "blog",
      "sections": [
        "featured-masonry-blog",
        "post-grid-with-text-overlay-filter"
      ]
    }
  ],
  "menus": [
    {
      "name": "main",
      "template": "menu",
      "items": [
        {
          "name": "Home",
          "link": "/",
          "new_window": 0,
          "position": 1
        },
        {
          "name": "About",
          "link": "/about",
          "new_window": 0,
          "position": 2
        },
        {
          "name": "FAQ",
          "link": "/faq",
          "new_window": 0,
          "position": 3
        },
        {
          "name": "Contact",
          "link": "/contact",
          "new_window": 0,
          "position": 4
        }
      ]
    },
    {
      "name": "footer-bottom",
      "template": "menu",
      "items": [
        {
          "name": "Privacy",
          "link": "/privacy",
          "new_window": 0,
          "position": 1
        },
        {
          "name": "Terms of Service",
          "link": "/terms-of-service",
          "new_window": 0,
          "position": 2
        }
      ]
    }
  ],
  "forms": [
    {
      "name": "Contact Form",
      "slug": "contact-form",
      "template": "form",
      "fields": [
        {
          "name": "name",
          "label": "Name",
          "field_type": "text",
          "options": "",
          "required": true,
          "custom_class": "form-control",
          "default_value": "",
          "error_msg": "This field is required",
          "custom_attributes": ""
        },
        {
          "name": "email",
          "label": "Email",
          "field_type": "email",
          "options": "",
          "required": true,
          "custom_class": "form-control",
          "default_value": "",
          "error_msg": "This field is required",
          "custom_attributes": ""
        },
        {
          "name": "phone",
          "label": "Phone",
          "field_type": "text",
          "options": "",
          "required": true,
          "custom_class": "form-control",
          "default_value": "",
          "error_msg": "This field is required",
          "custom_attributes": ""
        },
        {
          "name": "message",
          "label": "Message",
          "field_type": "textarea",
          "options": "",
          "required": true,
          "custom_class": "form-control",
          "default_value": "",
          "error_msg": "This field is required",
          "custom_attributes": ""
        }
      ]
    }
  ]
}