[
  {
    "name": "theme_info",
    "theme_name": "Lief Malbec",
    "theme_author": "Malbec",
    "theme_version": "1.0",
    "theme_documentation_url": "",
    "theme_support_url": ""
  },
  {
    "name": "Color Settings",
    "settings": [
      {
        "type": "color",
        "id": "heading_color_text",
        "label": "Default Heading Text",
        "default": "#21442B"
      },
      {
        "type": "color",
        "id": "color_text",
        "label": "Default Body Text",
        "default": "#1A211C"
      },
      {
        "type": "color",
        "id": "inverse_color_text",
        "label": "Inverse Text",
        "default": "#FFFFFF"
      },
      {
        "type": "color",
        "id": "accent1_color",
        "label": "Accent 1",
        "default": "#40644a"
      },
      {
        "type": "color",
        "id": "accent2_color",
        "label": "Accent 2 Color",
        "default": "#21442b"
      },
      {
        "type": "color",
        "id": "background1_color",
        "label": "Background 1 Color",
        "default": "#FFFFFF"
      },
      {
        "type": "color",
        "id": "background2_color",
        "label": "Background 2 Color",
        "default": "#accba81A"
      },
      {
        "type": "color",
        "id": "background3_color",
        "label": "Background 3 Color",
        "default": "#71a081"
      }
    ]
  },
  {
    "name": "Typography",
    "settings": [
      {
        "type": "select",
        "id": "type_header_font",
        "label": "Heading Font",
        "default": "'Montserrat', sans-serif;",
        "options": [
            {
                "label": "Montserrat",
                "value": "'Montserrat', sans-serif"
            },
            {
                "label": "Didot",
                "value": "linotype-didot, serif"
            },
            {
                "label": "Arial Black",
                "value": "Arial Black', sans-serif"
            },
            {
                "label": "Impact",
                "value": "Impact', sans-serif"
            }
        ]
      },
      {
        "type": "select",
        "id": "type_base_font",
        "label": "Body Font",
        "default": "'Raleway', sans-serif",
        "options": [
            {
                "label": "Raleway",
                "value": "'Raleway', sans-serif"
            },
            {
                "label": "Oswald",
                "value": "Oswald"
            },
            {
                "label": "Arial",
                "value": "Arial', sans-serif"
            },
            {
                "label": "Verdana",
                "value": "Verdana', sans-serif"
            }
        ]
      },
      {
        "type": "select",
        "id": "type_nav_font",
        "label": "Nav Link Font",
        "default": "'Raleway', sans-serif",
        "options": [
          {
                "label": "Montserrat",
                "value": "'Montserrat', sans-serif"
          },
          {
                "label": "Raleway",
                "value": "'Raleway', sans-serif"
          },
          {
                "label": "Didot",
                "value": "linotype-didot, serif"
          },
          {
                "label": "Oswald",
                "value": "Oswald"
          }
      ]
      },
      {
        "type": "select",
        "id": "type_nav_case",
        "label": "Nav Type Case",
        "default": "none",
        "options": [
          {
              "label": "None (As Entered)",
              "value": "none"
          },
          {
              "label": "Uppercase",
              "value": "uppercase"
          },
          {
              "label": "Lowercase",
              "value": "'lowecase"
          },
          {
              "label": "Capitalize",
              "value": "'capitalize"
          }
      ]
      }
     ]
  },
  {
    "name": "Buttons",
    "settings": [
      {
        "type": "select",
        "id": "type_button_font",
        "label": "Button Label Font",
        "default": "'Raleway', sans-serif",
        "options": [
          {
                "label": "Montserrat",
                "value": "'Montserrat', sans-serif"
          },
          {
                "label": "Raleway",
                "value": "'Raleway', sans-serif"
          },
          {
                "label": "Didot",
                "value": "linotype-didot, serif"
          },
          {
                "label": "Oswald",
                "value": "Oswald"
          }
        ]
      },
      {
            "type": "range",
            "id": "btn_border_radius",
            "label": "Button Border Radius",
            "default": 0,
            "min": 0,
            "max": 25,
            "step": 1
    },
     {
        "type": "color",
        "id": "color_primary_button",
        "label": "Primary Button Background",
        "default": "#40644a"
      },
      {
        "type": "color",
        "id": "color_hover_button",
        "label": "Button Hover Background",
        "default": "#21442b"
      },
      {
        "type": "color",
        "id": "color_primary_button_label",
        "label": "Primary Button Label Color",
        "default": "#FFFFFF"
      },
      {
        "type": "select",
        "id": "type_btn_case",
        "label": "Button Type Case",
        "default": "none",
        "options": [
          {
              "label": "None (As Entered)",
              "value": "none"
          },
          {
              "label": "Uppercase",
              "value": "uppercase"
          },
          {
              "label": "Lowercase",
              "value": "'lowecase"
          },
          {
              "label": "Capitalize",
              "value": "'capitalize"
          }
      ]
      }
    ]
  },
  {
    "name": "404 Page",
    "settings": [
        {
          "type": "select",
          "id": "404_height",
          "label": "Section Height",
          "default": "100vh",
          "options": [
          {
              "label": "Small",
              "value": "50vh"
          },
          {
              "label": "Medium",
              "value": "75vh"
          },
          {
              "label": "Full Screen",
              "value": "100vh"
          }]
        },
        {
            "type": "image_picker",
            "id": "404_image",
            "label": "404 Background Image"
        },
        {
            "type": "text",
            "id": "404_heading",
            "label": "404 Heading"
        },
        {
            "type": "richtext",
            "id": "404_text",
            "label": "404 Text"
        },
        {
            "type": "text",
            "id": "404_btn1_label",
            "label": "404 Button 1 Label"
        },
        {
            "type": "text",
            "id": "404_btn1_link",
            "label": "404 Button 1 Link"
        },
        {
            "type": "text",
            "id": "404_btn2_label",
            "label": "404 Button 2 Label"
        },
        {
            "type": "text",
            "id": "404_btn2_link",
            "label": "404 Button 2 link"
        }
 ]
}
]