<?xml version="1.0" standalone="no"?>
<!DOCTYPE svg PUBLIC "-//W3C//DTD SVG 1.1//EN" "http://www.w3.org/Graphics/SVG/1.1/DTD/svg11.dtd" >
<svg xmlns="http://www.w3.org/2000/svg">
<metadata>Generated by IcoMoon</metadata>
<defs>
<font id="icomoon" horiz-adv-x="1024">
<font-face units-per-em="1024" ascent="960" descent="-64" />
<missing-glyph horiz-adv-x="1024" />
<glyph unicode="&#x20;" horiz-adv-x="512" d="" />
<glyph unicode="&#xe900;" glyph-name="facebook" d="M967.501 960h-911.004c-31.202 0-56.497-25.294-56.497-56.497v-911.004c0-31.206 25.294-56.499 56.497-56.499h490.814v396.006h-133.296v155.012h133.296v114.052c0 132.237 80.861 204.271 198.796 204.271 39.744 0.086 79.462-1.917 118.995-6.003v-138.24h-81.21c-64.269 0-76.8-30.367-76.8-75.212v-98.692h153.6l-19.949-155.012h-134.534v-396.182h261.293c31.206 0 56.499 25.293 56.499 56.499v911.004c0 31.202-25.293 56.497-56.499 56.497z" />
<glyph unicode="&#xe902;" glyph-name="phone-icon" d="M252.261 816.324c12.665 10.143 27.863 15.676 43.292 15.676s30.627-5.533 43.292-15.676l1.842-0.922 0.921-0.922 120.664-124.489-0.922-0.922c26.138-24.321 25.677-65.587 0.922-90.369l-58.95-59.017c9.096-20.75 33.734-73.772 81.977-119.877 48.589-46.451 99.366-72.734 120.666-82.991l58.953 59.017c24.41 24.435 67.699 24.435 92.109 0l0.922-1.847 119.744-119.876c24.41-24.435 24.41-66.854 0-91.29l-93.030-93.137c-27.635-23.744-66.436-32.277-102.242-20.288h-0.922c-69.197 27.089-209.092 88.525-334.363 213.935-124.81 124.949-188.712 263.156-213.697 334.736-0.058 0.116-0.029 0.288 0 0.461s0.058 0.346 0 0.461c-12.32 34.004-3.569 73.31 24.87 99.59l-0.921 0.922 93.032 95.902 1.842 0.922zM302 770.217c-2.072 1.729-4.26 2.767-6.448 2.767s-4.375-1.038-6.447-2.767l-91.19-93.136c-10.478-8.991-13.702-26.742-9.211-38.73 22.337-64.319 83.245-196.76 199.881-313.526 115.714-115.844 245.476-172.902 312.254-199.181 17.156-5.764 31.548-3.345 45.137 8.299l90.266 90.368c2.534 2.539 3.802 3.345 3.802 4.151s-1.267 1.613-3.802 4.147l-120.661 120.802c-2.534 2.534-3.571 3.802-4.608 3.802s-2.074-1.267-4.604-3.802l-87.505-87.603-18.423 8.299c0 0-80.713 34.236-149.218 96.823l-6.451 5.534c-71.153 67.891-105.004 158.607-105.004 158.607l-6.448 18.443 13.817 12.91 73.689 73.771c3.038 3.041 2.072 5.749 1.859 6.345-0.037 0.104-0.051 0.144-0.017 0.109l-2.763 2.767-117.902 120.8z" />
<glyph unicode="&#xe903;" glyph-name="pinterest" d="M511.998 960c-282.767 0-511.998-229.245-511.998-512.029 0-216.918 134.954-402.358 325.412-476.963-4.474 40.506-8.515 102.81 1.78 147.040 9.3 39.955 60.033 254.511 60.033 254.511s-15.315 30.673-15.315 76.020c0 71.198 41.265 124.351 92.644 124.351 43.682 0 64.78-32.801 64.78-72.129 0-43.928-27.969-109.611-42.402-170.479-12.062-50.968 25.555-92.53 75.818-92.53 91.002 0 160.947 95.959 160.947 234.476 0 122.593-88.083 208.314-213.863 208.314-145.677 0-231.19-109.276-231.19-222.211 0-44.004 16.952-91.197 38.104-116.847 4.184-5.070 4.797-9.515 3.555-14.686-3.891-16.176-12.528-50.954-14.224-58.070-2.232-9.37-7.42-11.354-17.123-6.848-63.946 29.773-103.926 123.264-103.926 198.365 0 161.518 117.347 309.848 338.298 309.848 177.611 0 315.64-126.568 315.64-295.72 0-176.468-111.258-318.484-265.683-318.484-51.879 0-100.656 26.95-117.352 58.79 0 0-25.673-97.76-31.897-121.715-11.558-44.48-42.763-100.224-63.635-134.234 47.904-14.829 98.813-22.835 151.595-22.835 282.773 0 512.002 229.248 512.002 512.035 0 282.785-229.229 512.029-512.002 512.029z" />
<glyph unicode="&#xe904;" glyph-name="search-icon" d="M1024 16.031l-291.22 291.22c51.536 68.238 82.096 153.206 82.096 245.311 0 225.022-182.414 407.438-407.438 407.438-225.022 0-407.438-182.416-407.438-407.438 0-225.024 182.416-407.438 407.438-407.438 92.105 0 177.072 30.561 245.311 82.096l291.22-291.22 80.031 80.031zM701.702 552.562c0-162.514-131.749-294.263-294.263-294.263-162.516 0-294.261 131.749-294.261 294.263 0 162.516 131.745 294.261 294.261 294.261 162.514 0 294.263-131.745 294.263-294.261z" />
<glyph unicode="&#xe905;" glyph-name="twitter" d="M128-64h768c70.656 0 128 57.344 128 128v768c0 70.656-57.344 128-128 128h-768c-70.656 0-128-57.344-128-128v-768c0-70.656 57.344-128 128-128zM766.72 561.408c0-173.312-132.096-373.504-373.504-373.504-73.984 0-143.104 21.76-200.96 58.624 10.24-1.28 20.736-1.792 31.232-1.792 61.44 0 118.016 20.992 163.072 56.32-57.344 1.024-105.984 38.912-122.624 91.136 7.936-1.536 16.128-2.304 24.576-2.304 12.032 0 23.552 1.536 34.56 4.608-59.904 12.032-105.216 65.28-105.216 128.768v1.792c17.664-9.728 37.888-15.616 59.392-16.384-35.072 23.552-58.368 63.744-58.368 109.312 0 24.064 6.4 46.592 17.664 66.048 64.768-79.36 161.536-131.84 270.592-137.216-2.048 9.728-3.328 19.712-3.328 29.952 0 72.448 58.88 131.328 131.328 131.328 37.632 0 71.68-15.872 95.744-41.472 29.952 5.888 58.112 16.64 83.456 31.744-9.984-30.72-30.72-56.576-57.856-72.704 26.624 3.328 51.968 10.24 75.52 20.736-17.664-26.368-39.936-49.664-65.536-68.096 0.256-5.631 0.256-11.261 0.256-16.892v-0.004z" />
<glyph unicode="&#xe906;" glyph-name="action_call_dial_number_phone_icon" d="M614.4 345.6c0-56.474-45.926-102.4-102.4-102.4s-102.4 45.926-102.4 102.4c0 9.438 7.646 17.067 17.067 17.067s17.067-7.629 17.067-17.067c0-37.649 30.618-68.267 68.267-68.267s68.267 30.618 68.267 68.267c0 37.649-30.618 68.267-68.267 68.267-5.7 0-11.025 2.85-14.199 7.595-3.174 4.762-3.755 10.769-1.553 16.043l75.486 181.163h-145.067c-9.421 0-17.067 7.629-17.067 17.067s7.646 17.067 17.067 17.067h170.667c5.7 0 11.025-2.85 14.199-7.595 3.174-4.762 3.755-10.769 1.553-16.043l-76.698-184.098c44.732-10.957 78.012-51.405 78.012-99.465zM512-29.867c-263.492 0-477.867 214.374-477.867 477.867s214.374 477.867 477.867 477.867c263.492 0 477.867-214.374 477.867-477.867s-214.374-477.867-477.867-477.867zM512 960c-282.317 0-512-229.683-512-512s229.683-512 512-512c282.317 0 512 229.683 512 512s-229.683 512-512 512z" />
<glyph unicode="&#xe907;" glyph-name="action_call_dial_first_number_icon" d="M546.133 635.733v-375.467c0-9.438-7.646-17.067-17.067-17.067s-17.067 7.629-17.067 17.067v334.268l-73.267-73.267c-6.673-6.673-17.459-6.673-24.132 0s-6.673 17.459 0 24.132l102.4 102.4c4.881 4.898 12.203 6.383 18.603 3.703 6.366-2.628 10.53-8.875 10.53-15.77zM512-29.867c-263.492 0-477.867 214.374-477.867 477.867s214.374 477.867 477.867 477.867c263.492 0 477.867-214.374 477.867-477.867s-214.374-477.867-477.867-477.867zM512 960c-282.317 0-512-229.683-512-512s229.683-512 512-512c282.317 0 512 229.683 512 512s-229.683 512-512 512z" />
<glyph unicode="&#xe908;" glyph-name="action_call_dial_four_fourth_icon" d="M614.4 362.667c0-9.438-7.629-17.067-17.067-17.067h-17.067v-85.333c0-9.438-7.629-17.067-17.067-17.067s-17.067 7.629-17.067 17.067v315.972l-122.795-196.506h71.595c9.438 0 17.067-7.629 17.067-17.067s-7.629-17.067-17.067-17.067h-102.4c-6.195 0-11.913 3.362-14.933 8.806-3.004 5.41-2.833 12.049 0.461 17.306l170.667 273.067c4.028 6.468 11.93 9.489 19.166 7.356 7.322-2.099 12.373-8.789 12.373-16.401v-256h17.067c9.438 0 17.067-7.629 17.067-17.067zM512-29.867c-263.492 0-477.867 214.374-477.867 477.867s214.374 477.867 477.867 477.867c263.492 0 477.867-214.374 477.867-477.867s-214.374-477.867-477.867-477.867zM512 960c-282.317 0-512-229.683-512-512s229.683-512 512-512c282.317 0 512 229.683 512 512s-229.683 512-512 512z" />
<glyph unicode="&#xe909;" glyph-name="second_phone_number_two_call_icon" d="M455.799 299.401c-0.239-0.256-6.878-7.526-10.206-22.067h151.74c9.421 0 17.067-7.629 17.067-17.067s-7.646-17.067-17.067-17.067h-170.667c-9.421 0-17.067 7.629-17.067 17.067 0 36.693 16.64 57.361 21.146 62.31l118.972 152.969c0.444 0.563 0.922 1.092 1.417 1.587 0.239 0.256 29.133 30.157 29.133 73.267 0 37.649-30.618 68.267-68.267 68.267s-68.267-30.618-68.267-68.267c0-9.438-7.646-17.067-17.067-17.067s-17.067 7.629-17.067 17.067c0 56.474 45.926 102.4 102.4 102.4s102.4-45.926 102.4-102.4c0-53.521-32.393-90.283-38.281-96.512l-118.903-152.9c-0.444-0.546-0.922-1.092-1.417-1.587zM512-29.867c-263.492 0-477.867 214.374-477.867 477.867s214.374 477.867 477.867 477.867c263.492 0 477.867-214.374 477.867-477.867s-214.374-477.867-477.867-477.867zM512 960c-282.317 0-512-229.683-512-512s229.683-512 512-512c282.317 0 512 229.683 512 512s-229.683 512-512 512z" />
<glyph unicode="&#xe90a;" glyph-name="action_call_dial_fifth_five_icon" d="M443.733 618.667v-136.533h68.267c56.474 0 102.4-45.926 102.4-102.4v-34.133c0-56.474-45.926-102.4-102.4-102.4s-102.4 45.926-102.4 102.4c0 9.438 7.629 17.067 17.067 17.067s17.067-7.629 17.067-17.067c0-37.649 30.618-68.267 68.267-68.267s68.267 30.618 68.267 68.267v34.133c0 37.001-31.266 68.267-68.267 68.267h-85.333c-9.438 0-17.067 7.629-17.067 17.067v170.667c0 9.438 7.629 17.067 17.067 17.067h170.667c9.438 0 17.067-7.629 17.067-17.067s-7.629-17.067-17.067-17.067h-153.6zM512-29.867c-263.492 0-477.867 214.374-477.867 477.867s214.374 477.867 477.867 477.867c263.492 0 477.867-214.374 477.867-477.867s-214.374-477.867-477.867-477.867v0zM512 960c-282.317 0-512-229.683-512-512s229.683-512 512-512c282.317 0 512 229.683 512 512s-229.683 512-512 512v0z" />
<glyph unicode="&#xea92;" glyph-name="instagram" d="M512 867.8c136.8 0 153-0.6 206.8-3 50-2.2 77-10.6 95-17.6 23.8-9.2 41-20.4 58.8-38.2 18-18 29-35 38.4-58.8 7-18 15.4-45.2 17.6-95 2.4-54 3-70.2 3-206.8s-0.6-153-3-206.8c-2.2-50-10.6-77-17.6-95-9.2-23.8-20.4-41-38.2-58.8-18-18-35-29-58.8-38.4-18-7-45.2-15.4-95-17.6-54-2.4-70.2-3-206.8-3s-153 0.6-206.8 3c-50 2.2-77 10.6-95 17.6-23.8 9.2-41 20.4-58.8 38.2-18 18-29 35-38.4 58.8-7 18-15.4 45.2-17.6 95-2.4 54-3 70.2-3 206.8s0.6 153 3 206.8c2.2 50 10.6 77 17.6 95 9.2 23.8 20.4 41 38.2 58.8 18 18 35 29 58.8 38.4 18 7 45.2 15.4 95 17.6 53.8 2.4 70 3 206.8 3zM512 960c-139 0-156.4-0.6-211-3-54.4-2.4-91.8-11.2-124.2-23.8-33.8-13.2-62.4-30.6-90.8-59.2-28.6-28.4-46-57-59.2-90.6-12.6-32.6-21.4-69.8-23.8-124.2-2.4-54.8-3-72.2-3-211.2s0.6-156.4 3-211c2.4-54.4 11.2-91.8 23.8-124.2 13.2-33.8 30.6-62.4 59.2-90.8 28.4-28.4 57-46 90.6-59 32.6-12.6 69.8-21.4 124.2-23.8 54.6-2.4 72-3 211-3s156.4 0.6 211 3c54.4 2.4 91.8 11.2 124.2 23.8 33.6 13 62.2 30.6 90.6 59s46 57 59 90.6c12.6 32.6 21.4 69.8 23.8 124.2 2.4 54.6 3 72 3 211s-0.6 156.4-3 211c-2.4 54.4-11.2 91.8-23.8 124.2-12.6 34-30 62.6-58.6 91-28.4 28.4-57 46-90.6 59-32.6 12.6-69.8 21.4-124.2 23.8-54.8 2.6-72.2 3.2-211.2 3.2v0zM512 711c-145.2 0-263-117.8-263-263s117.8-263 263-263 263 117.8 263 263c0 145.2-117.8 263-263 263zM512 277.4c-94.2 0-170.6 76.4-170.6 170.6s76.4 170.6 170.6 170.6c94.2 0 170.6-76.4 170.6-170.6s-76.4-170.6-170.6-170.6zM846.8 721.4c0-33.91-27.49-61.4-61.4-61.4s-61.4 27.49-61.4 61.4c0 33.91 27.49 61.4 61.4 61.4s61.4-27.49 61.4-61.4z" />
</font></defs></svg>